 Vandermonde Matrix

   21    x   21
     1.0000     0.0000     0.0000     0.0000     0.0000     0.0000     0.0000     0.0000     0.0000     0.0000     0.0000     0.0000     0.0000     0.0000     0.0000     0.0000     0.0000     0.0000     0.0000     0.0000     0.0000
     1.0000     0.0500     0.0025     0.0001     0.0000     0.0000     0.0000     0.0000     0.0000     0.0000     0.0000     0.0000     0.0000     0.0000     0.0000     0.0000     0.0000     0.0000     0.0000     0.0000     0.0000
     1.0000     0.1000     0.0100     0.0010     0.0001     0.0000     0.0000     0.0000     0.0000     0.0000     0.0000     0.0000     0.0000     0.0000     0.0000     0.0000     0.0000     0.0000     0.0000     0.0000     0.0000
     1.0000     0.1500     0.0225     0.0034     0.0005     0.0001     0.0000     0.0000     0.0000     0.0000     0.0000     0.0000     0.0000     0.0000     0.0000     0.0000     0.0000     0.0000     0.0000     0.0000     0.0000
     1.0000     0.2000     0.0400     0.0080     0.0016     0.0003     0.0001     0.0000     0.0000     0.0000     0.0000     0.0000     0.0000     0.0000     0.0000     0.0000     0.0000     0.0000     0.0000     0.0000     0.0000
     1.0000     0.2500     0.0625     0.0156     0.0039     0.0010     0.0002     0.0001     0.0000     0.0000     0.0000     0.0000     0.0000     0.0000     0.0000     0.0000     0.0000     0.0000     0.0000     0.0000     0.0000
     1.0000     0.3000     0.0900     0.0270     0.0081     0.0024     0.0007     0.0002     0.0001     0.0000     0.0000     0.0000     0.0000     0.0000     0.0000     0.0000     0.0000     0.0000     0.0000     0.0000     0.0000
     1.0000     0.3500     0.1225     0.0429     0.0150     0.0053     0.0018     0.0006     0.0002     0.0001     0.0000     0.0000     0.0000     0.0000     0.0000     0.0000     0.0000     0.0000     0.0000     0.0000     0.0000
     1.0000     0.4000     0.1600     0.0640     0.0256     0.0102     0.0041     0.0016     0.0007     0.0003     0.0001     0.0000     0.0000     0.0000     0.0000     0.0000     0.0000     0.0000     0.0000     0.0000     0.0000
     1.0000     0.4500     0.2025     0.0911     0.0410     0.0185     0.0083     0.0037     0.0017     0.0008     0.0003     0.0002     0.0001     0.0000     0.0000     0.0000     0.0000     0.0000     0.0000     0.0000     0.0000
     1.0000     0.5000     0.2500     0.1250     0.0625     0.0312     0.0156     0.0078     0.0039     0.0020     0.0010     0.0005     0.0002     0.0001     0.0001     0.0000     0.0000     0.0000     0.0000     0.0000     0.0000
     1.0000     0.5500     0.3025     0.1664     0.0915     0.0503     0.0277     0.0152     0.0084     0.0046     0.0025     0.0014     0.0008     0.0004     0.0002     0.0001     0.0001     0.0000     0.0000     0.0000     0.0000
     1.0000     0.6000     0.3600     0.2160     0.1296     0.0778     0.0467     0.0280     0.0168     0.0101     0.0060     0.0036     0.0022     0.0013     0.0008     0.0005     0.0003     0.0002     0.0001     0.0001     0.0000
     1.0000     0.6500     0.4225     0.2746     0.1785     0.1160     0.0754     0.0490     0.0319     0.0207     0.0135     0.0088     0.0057     0.0037     0.0024     0.0016     0.0010     0.0007     0.0004     0.0003     0.0002
     1.0000     0.7000     0.4900     0.3430     0.2401     0.1681     0.1176     0.0824     0.0576     0.0404     0.0282     0.0198     0.0138     0.0097     0.0068     0.0047     0.0033     0.0023     0.0016     0.0011     0.0008
     1.0000     0.7500     0.5625     0.4219     0.3164     0.2373     0.1780     0.1335     0.1001     0.0751     0.0563     0.0422     0.0317     0.0238     0.0178     0.0134     0.0100     0.0075     0.0056     0.0042     0.0032
     1.0000     0.8000     0.6400     0.5120     0.4096     0.3277     0.2621     0.2097     0.1678     0.1342     0.1074     0.0859     0.0687     0.0550     0.0440     0.0352     0.0281     0.0225     0.0180     0.0144     0.0115
     1.0000     0.8500     0.7225     0.6141     0.5220     0.4437     0.3771     0.3206     0.2725     0.2316     0.1969     0.1673     0.1422     0.1209     0.1028     0.0874     0.0743     0.0631     0.0536     0.0456     0.0388
     1.0000     0.9000     0.8100     0.7290     0.6561     0.5905     0.5314     0.4783     0.4305     0.3874     0.3487     0.3138     0.2824     0.2542     0.2288     0.2059     0.1853     0.1668     0.1501     0.1351     0.1216
     1.0000     0.9500     0.9025     0.8574     0.8145     0.7738     0.7351     0.6983     0.6634     0.6302     0.5987     0.5688     0.5404     0.5133     0.4877     0.4633     0.4401     0.4181     0.3972     0.3774     0.3585
     1.0000     1.0000     1.0000     1.0000     1.0000     1.0000     1.0000     1.0000     1.0000     1.0000     1.0000     1.0000     1.0000     1.0000     1.0000     1.0000     1.0000     1.0000     1.0000     1.0000     1.0000
 
 Normal matrix V^TV

   21    x   21
    21.0000    10.5000     7.1750     5.5125     4.5167     3.8542     3.3821     3.0291     2.7555     2.5374     2.3597     2.2123     2.0882     1.9824     1.8913     1.8120     1.7426     1.6812     1.6268     1.5782     1.5345
    10.5000     7.1750     5.5125     4.5167     3.8542     3.3821     3.0291     2.7555     2.5374     2.3597     2.2123     2.0882     1.9824     1.8913     1.8120     1.7426     1.6812     1.6268     1.5782     1.5345     1.4952
     7.1750     5.5125     4.5167     3.8542     3.3821     3.0291     2.7555     2.5374     2.3597     2.2123     2.0882     1.9824     1.8913     1.8120     1.7426     1.6812     1.6268     1.5782     1.5345     1.4952     1.4597
     5.5125     4.5167     3.8542     3.3821     3.0291     2.7555     2.5374     2.3597     2.2123     2.0882     1.9824     1.8913     1.8120     1.7426     1.6812     1.6268     1.5782     1.5345     1.4952     1.4597     1.4274
     4.5167     3.8542     3.3821     3.0291     2.7555     2.5374     2.3597     2.2123     2.0882     1.9824     1.8913     1.8120     1.7426     1.6812     1.6268     1.5782     1.5345     1.4952     1.4597     1.4274     1.3979
     3.8542     3.3821     3.0291     2.7555     2.5374     2.3597     2.2123     2.0882     1.9824     1.8913     1.8120     1.7426     1.6812     1.6268     1.5782     1.5345     1.4952     1.4597     1.4274     1.3979     1.3711
     3.3821     3.0291     2.7555     2.5374     2.3597     2.2123     2.0882     1.9824     1.8913     1.8120     1.7426     1.6812     1.6268     1.5782     1.5345     1.4952     1.4597     1.4274     1.3979     1.3711     1.3464
     3.0291     2.7555     2.5374     2.3597     2.2123     2.0882     1.9824     1.8913     1.8120     1.7426     1.6812     1.6268     1.5782     1.5345     1.4952     1.4597     1.4274     1.3979     1.3711     1.3464     1.3238
     2.7555     2.5374     2.3597     2.2123     2.0882     1.9824     1.8913     1.8120     1.7426     1.6812     1.6268     1.5782     1.5345     1.4952     1.4597     1.4274     1.3979     1.3711     1.3464     1.3238     1.3030
     2.5374     2.3597     2.2123     2.0882     1.9824     1.8913     1.8120     1.7426     1.6812     1.6268     1.5782     1.5345     1.4952     1.4597     1.4274     1.3979     1.3711     1.3464     1.3238     1.3030     1.2838
     2.3597     2.2123     2.0882     1.9824     1.8913     1.8120     1.7426     1.6812     1.6268     1.5782     1.5345     1.4952     1.4597     1.4274     1.3979     1.3711     1.3464     1.3238     1.3030     1.2838     1.2661
     2.2123     2.0882     1.9824     1.8913     1.8120     1.7426     1.6812     1.6268     1.5782     1.5345     1.4952     1.4597     1.4274     1.3979     1.3711     1.3464     1.3238     1.3030     1.2838     1.2661     1.2497
     2.0882     1.9824     1.8913     1.8120     1.7426     1.6812     1.6268     1.5782     1.5345     1.4952     1.4597     1.4274     1.3979     1.3711     1.3464     1.3238     1.3030     1.2838     1.2661     1.2497     1.2345
     1.9824     1.8913     1.8120     1.7426     1.6812     1.6268     1.5782     1.5345     1.4952     1.4597     1.4274     1.3979     1.3711     1.3464     1.3238     1.3030     1.2838     1.2661     1.2497     1.2345     1.2203
     1.8913     1.8120     1.7426     1.6812     1.6268     1.5782     1.5345     1.4952     1.4597     1.4274     1.3979     1.3711     1.3464     1.3238     1.3030     1.2838     1.2661     1.2497     1.2345     1.2203     1.2072
     1.8120     1.7426     1.6812     1.6268     1.5782     1.5345     1.4952     1.4597     1.4274     1.3979     1.3711     1.3464     1.3238     1.3030     1.2838     1.2661     1.2497     1.2345     1.2203     1.2072     1.1950
     1.7426     1.6812     1.6268     1.5782     1.5345     1.4952     1.4597     1.4274     1.3979     1.3711     1.3464     1.3238     1.3030     1.2838     1.2661     1.2497     1.2345     1.2203     1.2072     1.1950     1.1835
     1.6812     1.6268     1.5782     1.5345     1.4952     1.4597     1.4274     1.3979     1.3711     1.3464     1.3238     1.3030     1.2838     1.2661     1.2497     1.2345     1.2203     1.2072     1.1950     1.1835     1.1729
     1.6268     1.5782     1.5345     1.4952     1.4597     1.4274     1.3979     1.3711     1.3464     1.3238     1.3030     1.2838     1.2661     1.2497     1.2345     1.2203     1.2072     1.1950     1.1835     1.1729     1.1629
     1.5782     1.5345     1.4952     1.4597     1.4274     1.3979     1.3711     1.3464     1.3238     1.3030     1.2838     1.2661     1.2497     1.2345     1.2203     1.2072     1.1950     1.1835     1.1729     1.1629     1.1536
     1.5345     1.4952     1.4597     1.4274     1.3979     1.3711     1.3464     1.3238     1.3030     1.2838     1.2661     1.2497     1.2345     1.2203     1.2072     1.1950     1.1835     1.1729     1.1629     1.1536     1.1449
 
 Choleskty decomp

   21    x   21
    21.0000    10.5000     7.1750     5.5125     4.5167     3.8542     3.3821     3.0291     2.7555     2.5374     2.3597     2.2123     2.0882     1.9824     1.8913     1.8120     1.7426     1.6812     1.6268     1.5782     1.5345
    10.5000     7.1750     5.5125     4.5167     3.8542     3.3821     3.0291     2.7555     2.5374     2.3597     2.2123     2.0882     1.9824     1.8913     1.8120     1.7426     1.6812     1.6268     1.5782     1.5345     1.4952
     7.1750     5.5125     4.5167     3.8542     3.3821     3.0291     2.7555     2.5374     2.3597     2.2123     2.0882     1.9824     1.8913     1.8120     1.7426     1.6812     1.6268     1.5782     1.5345     1.4952     1.4597
     5.5125     4.5167     3.8542     3.3821     3.0291     2.7555     2.5374     2.3597     2.2123     2.0882     1.9824     1.8913     1.8120     1.7426     1.6812     1.6268     1.5782     1.5345     1.4952     1.4597     1.4274
     4.5167     3.8542     3.3821     3.0291     2.7555     2.5374     2.3597     2.2123     2.0882     1.9824     1.8913     1.8120     1.7426     1.6812     1.6268     1.5782     1.5345     1.4952     1.4597     1.4274     1.3979
     3.8542     3.3821     3.0291     2.7555     2.5374     2.3597     2.2123     2.0882     1.9824     1.8913     1.8120     1.7426     1.6812     1.6268     1.5782     1.5345     1.4952     1.4597     1.4274     1.3979     1.3711
     3.3821     3.0291     2.7555     2.5374     2.3597     2.2123     2.0882     1.9824     1.8913     1.8120     1.7426     1.6812     1.6268     1.5782     1.5345     1.4952     1.4597     1.4274     1.3979     1.3711     1.3464
     3.0291     2.7555     2.5374     2.3597     2.2123     2.0882     1.9824     1.8913     1.8120     1.7426     1.6812     1.6268     1.5782     1.5345     1.4952     1.4597     1.4274     1.3979     1.3711     1.3464     1.3238
     2.7555     2.5374     2.3597     2.2123     2.0882     1.9824     1.8913     1.8120     1.7426     1.6812     1.6268     1.5782     1.5345     1.4952     1.4597     1.4274     1.3979     1.3711     1.3464     1.3238     1.3030
     2.5374     2.3597     2.2123     2.0882     1.9824     1.8913     1.8120     1.7426     1.6812     1.6268     1.5782     1.5345     1.4952     1.4597     1.4274     1.3979     1.3711     1.3464     1.3238     1.3030     1.2838
     2.3597     2.2123     2.0882     1.9824     1.8913     1.8120     1.7426     1.6812     1.6268     1.5782     1.5345     1.4952     1.4597     1.4274     1.3979     1.3711     1.3464     1.3238     1.3030     1.2838     1.2661
     2.2123     2.0882     1.9824     1.8913     1.8120     1.7426     1.6812     1.6268     1.5782     1.5345     1.4952     1.4597     1.4274     1.3979     1.3711     1.3464     1.3238     1.3030     1.2838     1.2661     1.2497
     2.0882     1.9824     1.8913     1.8120     1.7426     1.6812     1.6268     1.5782     1.5345     1.4952     1.4597     1.4274     1.3979     1.3711     1.3464     1.3238     1.3030     1.2838     1.2661     1.2497     1.2345
     1.9824     1.8913     1.8120     1.7426     1.6812     1.6268     1.5782     1.5345     1.4952     1.4597     1.4274     1.3979     1.3711     1.3464     1.3238     1.3030     1.2838     1.2661     1.2497     1.2345     1.2203
     1.8913     1.8120     1.7426     1.6812     1.6268     1.5782     1.5345     1.4952     1.4597     1.4274     1.3979     1.3711     1.3464     1.3238     1.3030     1.2838     1.2661     1.2497     1.2345     1.2203     1.2072
     1.8120     1.7426     1.6812     1.6268     1.5782     1.5345     1.4952     1.4597     1.4274     1.3979     1.3711     1.3464     1.3238     1.3030     1.2838     1.2661     1.2497     1.2345     1.2203     1.2072     1.1950
     1.7426     1.6812     1.6268     1.5782     1.5345     1.4952     1.4597     1.4274     1.3979     1.3711     1.3464     1.3238     1.3030     1.2838     1.2661     1.2497     1.2345     1.2203     1.2072     1.1950     1.1835
     1.6812     1.6268     1.5782     1.5345     1.4952     1.4597     1.4274     1.3979     1.3711     1.3464     1.3238     1.3030     1.2838     1.2661     1.2497     1.2345     1.2203     1.2072     1.1950     1.1835     1.1729
     1.6268     1.5782     1.5345     1.4952     1.4597     1.4274     1.3979     1.3711     1.3464     1.3238     1.3030     1.2838     1.2661     1.2497     1.2345     1.2203     1.2072     1.1950     1.1835     1.1729     1.1629
     1.5782     1.5345     1.4952     1.4597     1.4274     1.3979     1.3711     1.3464     1.3238     1.3030     1.2838     1.2661     1.2497     1.2345     1.2203     1.2072     1.1950     1.1835     1.1729     1.1629     1.1536
     1.5345     1.4952     1.4597     1.4274     1.3979     1.3711     1.3464     1.3238     1.3030     1.2838     1.2661     1.2497     1.2345     1.2203     1.2072     1.1950     1.1835     1.1729     1.1629     1.1536     1.1449
 
 Solution to Vx = y for polynomial interpolation (the coefficents)

   21    x    1
     0.0661
    -0.0154
    -0.0013
    -0.0006
    -0.0009
    -0.0012
    -0.0014
    -0.0015
    -0.0015
    -0.0014
    -0.0013
    -0.0012
    -0.0011
    -0.0010
    -0.0009
    -0.0008
    -0.0007
    -0.0007
    -0.0006
    -0.0005
    -0.0059
 
 Error ||Vx-y||_2
   5.19681120    
 Vandermonde matrix

   21    x   21
     1.0000     0.0000     0.0000     0.0000     0.0000     0.0000     0.0000     0.0000     0.0000     0.0000     0.0000     0.0000     0.0000     0.0000     0.0000     0.0000     0.0000     0.0000     0.0000     0.0000     0.0000
     1.0000     0.0500     0.0025     0.0001     0.0000     0.0000     0.0000     0.0000     0.0000     0.0000     0.0000     0.0000     0.0000     0.0000     0.0000     0.0000     0.0000     0.0000     0.0000     0.0000     0.0000
     1.0000     0.1000     0.0100     0.0010     0.0001     0.0000     0.0000     0.0000     0.0000     0.0000     0.0000     0.0000     0.0000     0.0000     0.0000     0.0000     0.0000     0.0000     0.0000     0.0000     0.0000
     1.0000     0.1500     0.0225     0.0034     0.0005     0.0001     0.0000     0.0000     0.0000     0.0000     0.0000     0.0000     0.0000     0.0000     0.0000     0.0000     0.0000     0.0000     0.0000     0.0000     0.0000
     1.0000     0.2000     0.0400     0.0080     0.0016     0.0003     0.0001     0.0000     0.0000     0.0000     0.0000     0.0000     0.0000     0.0000     0.0000     0.0000     0.0000     0.0000     0.0000     0.0000     0.0000
     1.0000     0.2500     0.0625     0.0156     0.0039     0.0010     0.0002     0.0001     0.0000     0.0000     0.0000     0.0000     0.0000     0.0000     0.0000     0.0000     0.0000     0.0000     0.0000     0.0000     0.0000
     1.0000     0.3000     0.0900     0.0270     0.0081     0.0024     0.0007     0.0002     0.0001     0.0000     0.0000     0.0000     0.0000     0.0000     0.0000     0.0000     0.0000     0.0000     0.0000     0.0000     0.0000
     1.0000     0.3500     0.1225     0.0429     0.0150     0.0053     0.0018     0.0006     0.0002     0.0001     0.0000     0.0000     0.0000     0.0000     0.0000     0.0000     0.0000     0.0000     0.0000     0.0000     0.0000
     1.0000     0.4000     0.1600     0.0640     0.0256     0.0102     0.0041     0.0016     0.0007     0.0003     0.0001     0.0000     0.0000     0.0000     0.0000     0.0000     0.0000     0.0000     0.0000     0.0000     0.0000
     1.0000     0.4500     0.2025     0.0911     0.0410     0.0185     0.0083     0.0037     0.0017     0.0008     0.0003     0.0002     0.0001     0.0000     0.0000     0.0000     0.0000     0.0000     0.0000     0.0000     0.0000
     1.0000     0.5000     0.2500     0.1250     0.0625     0.0312     0.0156     0.0078     0.0039     0.0020     0.0010     0.0005     0.0002     0.0001     0.0001     0.0000     0.0000     0.0000     0.0000     0.0000     0.0000
     1.0000     0.5500     0.3025     0.1664     0.0915     0.0503     0.0277     0.0152     0.0084     0.0046     0.0025     0.0014     0.0008     0.0004     0.0002     0.0001     0.0001     0.0000     0.0000     0.0000     0.0000
     1.0000     0.6000     0.3600     0.2160     0.1296     0.0778     0.0467     0.0280     0.0168     0.0101     0.0060     0.0036     0.0022     0.0013     0.0008     0.0005     0.0003     0.0002     0.0001     0.0001     0.0000
     1.0000     0.6500     0.4225     0.2746     0.1785     0.1160     0.0754     0.0490     0.0319     0.0207     0.0135     0.0088     0.0057     0.0037     0.0024     0.0016     0.0010     0.0007     0.0004     0.0003     0.0002
     1.0000     0.7000     0.4900     0.3430     0.2401     0.1681     0.1176     0.0824     0.0576     0.0404     0.0282     0.0198     0.0138     0.0097     0.0068     0.0047     0.0033     0.0023     0.0016     0.0011     0.0008
     1.0000     0.7500     0.5625     0.4219     0.3164     0.2373     0.1780     0.1335     0.1001     0.0751     0.0563     0.0422     0.0317     0.0238     0.0178     0.0134     0.0100     0.0075     0.0056     0.0042     0.0032
     1.0000     0.8000     0.6400     0.5120     0.4096     0.3277     0.2621     0.2097     0.1678     0.1342     0.1074     0.0859     0.0687     0.0550     0.0440     0.0352     0.0281     0.0225     0.0180     0.0144     0.0115
     1.0000     0.8500     0.7225     0.6141     0.5220     0.4437     0.3771     0.3206     0.2725     0.2316     0.1969     0.1673     0.1422     0.1209     0.1028     0.0874     0.0743     0.0631     0.0536     0.0456     0.0388
     1.0000     0.9000     0.8100     0.7290     0.6561     0.5905     0.5314     0.4783     0.4305     0.3874     0.3487     0.3138     0.2824     0.2542     0.2288     0.2059     0.1853     0.1668     0.1501     0.1351     0.1216
     1.0000     0.9500     0.9025     0.8574     0.8145     0.7738     0.7351     0.6983     0.6634     0.6302     0.5987     0.5688     0.5404     0.5133     0.4877     0.4633     0.4401     0.4181     0.3972     0.3774     0.3585
     1.0000     1.0000     1.0000     1.0000     1.0000     1.0000     1.0000     1.0000     1.0000     1.0000     1.0000     1.0000     1.0000     1.0000     1.0000     1.0000     1.0000     1.0000     1.0000     1.0000     1.0000
 
 A_qr

   21    x   21
     1.1037    -2.2913    -1.5657    -1.2029    -0.9856    -0.8410    -0.7380    -0.6610    -0.6013    -0.5537    -0.5149    -0.4828    -0.4557    -0.4326    -0.4127    -0.3954    -0.3803    -0.3669    -0.3550    -0.3444    -0.3349
     0.1977    -1.1224     1.3874     1.2688     1.1502     1.0487     0.9644     0.8944     0.8358     0.7864     0.7442     0.7078     0.6763     0.6487     0.6244     0.6029     0.5838     0.5666     0.5512     0.5373     0.5247
     0.1977    -0.1993     1.0333    -0.5617    -0.6492    -0.6870    -0.6994    -0.6985    -0.6906    -0.6793    -0.6664    -0.6530    -0.6396    -0.6266    -0.6142    -0.6025    -0.5914    -0.5811    -0.5714    -0.5623    -0.5539
     0.1977    -0.1672    -0.0254     1.1152    -0.1973    -0.2764    -0.3359    -0.3796    -0.4115    -0.4347    -0.4514    -0.4633    -0.4717    -0.4775    -0.4814    -0.4838    -0.4851    -0.4855    -0.4854    -0.4847    -0.4838
     0.1977    -0.1351    -0.1033     0.2932    -1.1205     0.0641     0.1055     0.1450     0.1807     0.2119     0.2388     0.2619     0.2816     0.2985     0.3128     0.3250     0.3355     0.3445     0.3523     0.3589     0.3647
     0.1977    -0.1030    -0.1683     0.3257    -0.1580    -1.0440     0.0197     0.0373     0.0573     0.0781     0.0986     0.1184     0.1370     0.1543     0.1702     0.1848     0.1982     0.2103     0.2214     0.2315     0.2407
     0.1977    -0.0709    -0.2203     0.3229    -0.0700    -0.1699     1.0536    -0.0058    -0.0124    -0.0211    -0.0312    -0.0423    -0.0540    -0.0658    -0.0775    -0.0890    -0.1001    -0.1108    -0.1209    -0.1306    -0.1397
     0.1977    -0.0388    -0.2595     0.2916     0.0146    -0.1793    -0.0361     1.1499    -0.0016    -0.0039    -0.0073    -0.0117    -0.0169    -0.0228    -0.0293    -0.0361    -0.0431    -0.0502    -0.0573    -0.0643    -0.0713
     0.1977    -0.0067    -0.2857     0.2385     0.0793    -0.1159    -0.1901     0.3316    -1.0218     0.0005     0.0012     0.0024     0.0041     0.0064     0.0091     0.0122     0.0157     0.0195     0.0235     0.0276     0.0319
     0.1977     0.0254    -0.2990     0.1706     0.1129     0.0029    -0.3018     0.2600     0.0968    -1.0798     0.0001     0.0003     0.0007     0.0014     0.0022     0.0034     0.0048     0.0064     0.0082     0.0102     0.0124
     0.1977     0.0575    -0.2993     0.0945     0.1097     0.1491    -0.3345     0.1069     0.1213     0.0509    -1.0856     0.0000     0.0001     0.0002     0.0004     0.0008     0.0012     0.0018     0.0025     0.0033     0.0042
     0.1977     0.0896    -0.2868     0.0172     0.0688     0.2894    -0.2786    -0.0511    -0.0008     0.2861    -0.1182     1.0190    -0.0000    -0.0000    -0.0001    -0.0001    -0.0002    -0.0004    -0.0005    -0.0008    -0.0011
     0.1977     0.1217    -0.2613    -0.0545    -0.0051     0.3909    -0.1545    -0.1361    -0.1978     0.3509     0.1205     0.0188    -1.3116     0.0000     0.0000     0.0000     0.0001     0.0002     0.0002     0.0004     0.0005
     0.1977     0.1538    -0.2229    -0.1139    -0.1024     0.4264    -0.0079    -0.0978    -0.3469     0.2094     0.2202     0.0173    -0.0647    -1.1787     0.0000     0.0000     0.0000     0.0000     0.0000     0.0001     0.0001
     0.1977     0.1859    -0.1715    -0.1541    -0.2080     0.3800     0.1004     0.0580    -0.3276    -0.0408     0.0412     0.2546     0.0956     0.4651    -1.0051     0.0000     0.0000     0.0000     0.0000     0.0001     0.0001
     0.1977     0.2181    -0.1073    -0.1683    -0.3017     0.2524     0.1120     0.2644    -0.1217    -0.1676    -0.2791     0.1788     0.0898     0.2833     0.1528    -1.1441     0.0000     0.0000     0.0000     0.0000     0.0000
     0.1977     0.2502    -0.0301    -0.1497    -0.3581     0.0666    -0.0059     0.4057     0.1401    -0.0241    -0.3140    -0.3341    -0.0819     0.1450    -0.2100     0.1440     1.1704    -0.0000    -0.0000    -0.0000    -0.0000
     0.1977     0.2823     0.0600    -0.0915    -0.3465    -0.1267    -0.2302     0.3669     0.1922     0.3011     0.0543    -0.4790     0.0428     0.2966    -0.3669     0.4901    -0.0725    -1.0484     0.0000     0.0000     0.0000
     0.1977     0.3144     0.1630     0.0132    -0.2310    -0.2439    -0.4458     0.1211    -0.1830     0.4135     0.2582     0.2916     0.3340     0.4377     0.7032    -0.2044    -0.4312    -0.3211     1.3477    -0.0000    -0.0000
     0.1977     0.3465     0.2790     0.1712     0.0293    -0.1625    -0.4028    -0.1301    -0.7478     0.0641    -0.4587    -0.2181    -0.1465     0.0937    -0.1469    -0.5231     0.4163    -0.5104    -0.3870     1.3706    -0.0000
     0.1977     0.3786     0.4078     0.3893     0.4810     0.2837     0.3338     0.2323    -0.0302     0.5353    -0.5350     0.6250     0.3418     0.0686    -0.5212    -0.3386    -0.5155     0.7330     0.1843     0.3484    -1.4142
 
 Q^ty

   21    x    1
    -5.3271
    -0.8719
    -0.1036
     0.7188
    -0.0507
    -0.1655
     0.0021
    -0.0238
    -0.0803
    -0.0542
     0.0097
     0.0599
     0.0027
    -0.0238
    -0.0021
    -0.0846
     0.0028
    -0.0572
     0.0475
     0.0468
    -0.0273
 
 Solution - coefficients to polynomial

   21    x    1
     2.3624
    -8.5758
  -423.2561
 10333.4424
***********
635498.5625
***********
***********
***********
***********
384940.7188
  4630.0640
***********
***********
***********
***********
***********
253932.5625
***********
***********
***********
 
 Error ||Vx-y||_2
  0.924137712    

 V - QR

   21    x   21
     0.0000     0.0000     0.0000     0.0000     0.0000     0.0000     0.0000     0.0000     0.0000     0.0000     0.0000     0.0000     0.0000     0.0000     0.0000     0.0000     0.0000     0.0000     0.0000     0.0000     0.0000
     0.0000     0.0000     0.0000     0.0000     0.0000     0.0000     0.0000     0.0000     0.0000     0.0000     0.0000     0.0000     0.0000     0.0000     0.0000     0.0000     0.0000     0.0000     0.0000     0.0000     0.0000
     0.0000     0.0000     0.0000     0.0000     0.0000     0.0000     0.0000     0.0000     0.0000     0.0000     0.0000     0.0000     0.0000     0.0000     0.0000     0.0000     0.0000     0.0000     0.0000     0.0000     0.0000
     0.0000     0.0000     0.0000     0.0000     0.0000     0.0000     0.0000    -0.0000    -0.0000     0.0000     0.0000     0.0000     0.0000     0.0000    -0.0000    -0.0000     0.0000    -0.0000    -0.0000     0.0000    -0.0000
     0.0000     0.0000     0.0000     0.0000     0.0000     0.0000     0.0000     0.0000     0.0000     0.0000     0.0000     0.0000     0.0000     0.0000     0.0000     0.0000     0.0000     0.0000     0.0000     0.0000     0.0000
     0.0000     0.0000     0.0000     0.0000     0.0000     0.0000     0.0000     0.0000     0.0000     0.0000     0.0000    -0.0000     0.0000     0.0000    -0.0000    -0.0000    -0.0000    -0.0000    -0.0000     0.0000    -0.0000
     0.0000     0.0000     0.0000     0.0000     0.0000     0.0000     0.0000     0.0000     0.0000     0.0000     0.0000     0.0000     0.0000     0.0000     0.0000    -0.0000     0.0000     0.0000     0.0000     0.0000     0.0000
     0.0000     0.0000     0.0000     0.0000     0.0000     0.0000     0.0000     0.0000     0.0000     0.0000     0.0000     0.0000     0.0000     0.0000     0.0000     0.0000     0.0000     0.0000     0.0000     0.0000     0.0000
     0.0000     0.0000     0.0000     0.0000     0.0000     0.0000     0.0000     0.0000     0.0000     0.0000     0.0000     0.0000     0.0000     0.0000     0.0000     0.0000     0.0000    -0.0000     0.0000     0.0000     0.0000
     0.0000     0.0000     0.0000     0.0000     0.0000     0.0000     0.0000    -0.0000     0.0000     0.0000     0.0000    -0.0000     0.0000     0.0000    -0.0000    -0.0000     0.0000    -0.0000     0.0000    -0.0000     0.0000
     0.0000     0.0000     0.0000     0.0000     0.0000     0.0000     0.0000     0.0000     0.0000     0.0000     0.0000     0.0000     0.0000     0.0000    -0.0000    -0.0000     0.0000    -0.0000     0.0000    -0.0000     0.0000
     0.0000     0.0000     0.0000     0.0000     0.0000     0.0000     0.0000     0.0000     0.0000     0.0000     0.0000    -0.0000     0.0000    -0.0000     0.0000     0.0000    -0.0000    -0.0000    -0.0000     0.0000     0.0000
     0.0000     0.0000     0.0000     0.0000     0.0000     0.0000     0.0000     0.0000     0.0000     0.0000     0.0000     0.0000     0.0000     0.0000     0.0000     0.0000     0.0000     0.0000     0.0000     0.0000     0.0000
     0.0000     0.0000     0.0000     0.0000     0.0000     0.0000     0.0000     0.0000     0.0000     0.0000     0.0000     0.0000     0.0000     0.0000     0.0000     0.0000     0.0000     0.0000     0.0000     0.0000     0.0000
     0.0000     0.0000     0.0000     0.0000     0.0000     0.0000    -0.0000     0.0000     0.0000    -0.0000     0.0000    -0.0000     0.0000     0.0000     0.0000     0.0000     0.0000     0.0000     0.0000     0.0000     0.0000
     0.0000     0.0000     0.0000     0.0000     0.0000     0.0000    -0.0000     0.0000     0.0000    -0.0000     0.0000    -0.0000     0.0000     0.0000    -0.0000     0.0000    -0.0000     0.0000     0.0000    -0.0000     0.0000
     0.0000     0.0000     0.0000    -0.0000     0.0000     0.0000    -0.0000     0.0000     0.0000     0.0000     0.0000     0.0000     0.0000     0.0000     0.0000     0.0000     0.0000     0.0000     0.0000     0.0000     0.0000
     0.0000     0.0000     0.0000     0.0000     0.0000     0.0000     0.0000     0.0000     0.0000     0.0000     0.0000     0.0000     0.0000    -0.0000     0.0000     0.0000     0.0000     0.0000     0.0000     0.0000     0.0000
     0.0000     0.0000     0.0000    -0.0000     0.0000     0.0000    -0.0000    -0.0000     0.0000     0.0000     0.0000     0.0000     0.0000     0.0000     0.0000     0.0000     0.0000     0.0000     0.0000     0.0000     0.0000
     0.0000     0.0000     0.0000    -0.0000     0.0000     0.0000     0.0000     0.0000     0.0000     0.0000     0.0000     0.0000     0.0000     0.0000     0.0000     0.0000     0.0000     0.0000     0.0000     0.0000     0.0000
     0.0000     0.0000     0.0000     0.0000     0.0000     0.0000     0.0000     0.0000     0.0000     0.0000     0.0000     0.0000     0.0000     0.0000     0.0000     0.0000     0.0000     0.0000     0.0000     0.0000     0.0000
 
 Q'Q - I

   21    x   21
    -0.0000    -0.0000    -0.0000     0.0000     0.0000    -0.0000    -0.0000     0.0000     0.0000    -0.0000     0.0000    -0.0000    -0.0000    -0.0000    -0.0000    -0.0000     0.0000     0.0000    -0.0000     0.0000     0.0000
    -0.0000     0.0000     0.0000     0.0000     0.0000    -0.0000    -0.0000     0.0000     0.0000    -0.0000     0.0000    -0.0000    -0.0000    -0.0000     0.0000     0.0000     0.0000     0.0000    -0.0000    -0.0000     0.0000
    -0.0000     0.0000    -0.0000    -0.0000     0.0000    -0.0000     0.0000     0.0000     0.0000    -0.0000     0.0000     0.0000    -0.0000    -0.0000     0.0000     0.0000     0.0000    -0.0000     0.0000     0.0000    -0.0000
     0.0000     0.0000    -0.0000     0.0000     0.0000     0.0000     0.0000    -0.0000    -0.0000     0.0000    -0.0000    -0.0000    -0.0000    -0.0000    -0.0000     0.0000     0.0000     0.0000     0.0000    -0.0000     0.0000
     0.0000     0.0000     0.0000     0.0000     0.0000     0.0000     0.0000    -0.0000    -0.0000    -0.0000    -0.0000     0.0000    -0.0000    -0.0000     0.0000     0.0000    -0.0000    -0.0000    -0.0000     0.0000    -0.0000
    -0.0000    -0.0000    -0.0000     0.0000     0.0000    -0.0000    -0.0000    -0.0000    -0.0000    -0.0000    -0.0000     0.0000     0.0000     0.0000    -0.0000     0.0000     0.0000    -0.0000    -0.0000     0.0000     0.0000
    -0.0000    -0.0000     0.0000     0.0000     0.0000    -0.0000    -0.0000    -0.0000    -0.0000     0.0000     0.0000    -0.0000    -0.0000     0.0000     0.0000     0.0000     0.0000     0.0000    -0.0000    -0.0000    -0.0000
     0.0000     0.0000     0.0000    -0.0000    -0.0000    -0.0000    -0.0000    -0.0000     0.0000    -0.0000     0.0000    -0.0000     0.0000    -0.0000    -0.0000    -0.0000    -0.0000     0.0000     0.0000    -0.0000     0.0000
     0.0000     0.0000     0.0000    -0.0000    -0.0000    -0.0000    -0.0000     0.0000    -0.0000    -0.0000    -0.0000     0.0000     0.0000     0.0000    -0.0000    -0.0000     0.0000     0.0000     0.0000     0.0000     0.0000
    -0.0000    -0.0000    -0.0000     0.0000    -0.0000    -0.0000     0.0000    -0.0000    -0.0000    -0.0000    -0.0000    -0.0000    -0.0000     0.0000     0.0000     0.0000     0.0000    -0.0000    -0.0000    -0.0000    -0.0000
     0.0000     0.0000     0.0000    -0.0000    -0.0000    -0.0000     0.0000     0.0000    -0.0000    -0.0000    -0.0000    -0.0000    -0.0000    -0.0000    -0.0000    -0.0000     0.0000     0.0000    -0.0000     0.0000     0.0000
    -0.0000    -0.0000     0.0000    -0.0000     0.0000     0.0000    -0.0000    -0.0000     0.0000    -0.0000    -0.0000    -0.0000    -0.0000    -0.0000    -0.0000     0.0000    -0.0000    -0.0000    -0.0000    -0.0000    -0.0000
    -0.0000    -0.0000    -0.0000    -0.0000    -0.0000     0.0000    -0.0000     0.0000     0.0000    -0.0000    -0.0000    -0.0000     0.0000     0.0000     0.0000     0.0000    -0.0000    -0.0000    -0.0000    -0.0000    -0.0000
    -0.0000    -0.0000    -0.0000    -0.0000    -0.0000     0.0000     0.0000    -0.0000     0.0000     0.0000    -0.0000    -0.0000     0.0000    -0.0000     0.0000     0.0000    -0.0000    -0.0000    -0.0000     0.0000    -0.0000
    -0.0000     0.0000     0.0000    -0.0000     0.0000    -0.0000     0.0000    -0.0000    -0.0000     0.0000    -0.0000    -0.0000     0.0000     0.0000     0.0000    -0.0000    -0.0000     0.0000     0.0000     0.0000    -0.0000
    -0.0000     0.0000     0.0000     0.0000     0.0000     0.0000     0.0000    -0.0000    -0.0000     0.0000    -0.0000     0.0000     0.0000     0.0000    -0.0000    -0.0000     0.0000     0.0000    -0.0000     0.0000    -0.0000
     0.0000     0.0000     0.0000     0.0000    -0.0000     0.0000     0.0000    -0.0000     0.0000     0.0000     0.0000    -0.0000    -0.0000    -0.0000    -0.0000     0.0000    -0.0000     0.0000    -0.0000     0.0000     0.0000
     0.0000     0.0000    -0.0000     0.0000    -0.0000    -0.0000     0.0000     0.0000     0.0000    -0.0000     0.0000    -0.0000    -0.0000    -0.0000     0.0000     0.0000     0.0000    -0.0000    -0.0000     0.0000    -0.0000
    -0.0000    -0.0000     0.0000     0.0000    -0.0000    -0.0000    -0.0000     0.0000     0.0000    -0.0000    -0.0000    -0.0000    -0.0000    -0.0000     0.0000    -0.0000    -0.0000    -0.0000    -0.0000    -0.0000     0.0000
     0.0000    -0.0000     0.0000    -0.0000     0.0000     0.0000    -0.0000    -0.0000     0.0000    -0.0000     0.0000    -0.0000    -0.0000     0.0000     0.0000     0.0000     0.0000     0.0000    -0.0000     0.0000     0.0000
     0.0000     0.0000    -0.0000     0.0000    -0.0000     0.0000    -0.0000     0.0000     0.0000    -0.0000     0.0000    -0.0000    -0.0000    -0.0000    -0.0000    -0.0000     0.0000    -0.0000     0.0000     0.0000    -0.0000
 
 2 norm error Q'Q - I
 
 Norm column:            1
   4.48742185E-07
 Norm column:            2
   2.43463575E-07
 Norm column:            3
   2.35015605E-07
 Norm column:            4
   2.43739379E-07
 Norm column:            5
   2.44180825E-07
 Norm column:            6
   1.75183345E-07
 Norm column:            7
   2.49905867E-07
 Norm column:            8
   3.23415946E-07
 Norm column:            9
   2.55420815E-07
 Norm column:           10
   4.14243544E-07
 Norm column:           11
   1.91486180E-07
 Norm column:           12
   3.41497952E-07
 Norm column:           13
   2.39727115E-07
 Norm column:           14
   3.76085211E-07
 Norm column:           15
   2.37131815E-07
 Norm column:           16
   5.53850214E-07
 Norm column:           17
   2.03984200E-07
 Norm column:           18
   4.59706570E-07
 Norm column:           19
   4.93124958E-07
 Norm column:           20
   3.24157043E-07
 Norm column:           21
   7.58420299E-07
