 Enter a number for the diagonal elements of A (eg 2, 5, 10, 100, 1000, -1)

 Your input:   -1.0000000000000000     

 input was -1: setting a_ii = i
 1. Jacobi
 2. Gauss-Seidel
 3. Conjugate Gradient
 Select algorithm to solve Ax = b (1, 2, or 3): 

 You picked Conjugate Gradient
 Running algorithm..
 QR shift num iterations
          28
 eigenvalues: 

   10    x   10
    15.3100     0.0000    -0.0000     0.0000    -0.0000     0.0000     0.0000    -0.0000    -0.0000     0.0000
    -0.0000     0.2340    -0.0000     0.0000     0.0000     0.0000    -0.0000    -0.0000     0.0000     0.0000
     0.0000    -0.0000     1.2851    -0.0000     0.0000     0.0000    -0.0000    -0.0000    -0.0000     0.0000
     0.0000    -0.0000    -0.0000     8.6248    -0.0000    -0.0000     0.0000     0.0000    -0.0000    -0.0000
     0.0000     0.0000     0.0000    -0.0000     2.3248    -0.0000     0.0000     0.0000    -0.0000    -0.0000
    -0.0000     0.0000     0.0000    -0.0000    -0.0000     7.5405     0.0000     0.0000     0.0000     0.0000
     0.0000     0.0000     0.0000     0.0000     0.0000     0.0000     3.3614    -0.0000    -0.0000     0.0000
    -0.0000     0.0000     0.0000    -0.0000     0.0000    -0.0000    -0.0000     6.4834    -0.0000    -0.0000
     0.0000     0.0000    -0.0000     0.0000     0.0000     0.0000     0.0000     0.0000     4.3982    -0.0000
    -0.0000     0.0000     0.0000    -0.0000     0.0000    -0.0000    -0.0000     0.0000    -0.0000     5.4378
 
 Conjugate Gradient number of iterations
          10
 Solution

   10    x    1
    -8.0000
     1.0000
     1.0000
     1.0000
     1.0000
     1.0000
     1.0000
     1.0000
     1.0000
     1.0000
 
