
    3    x    4
     1.0000     2.0000     3.0000     1.0000
    -3.0000     2.0000     5.0000     1.0000
     3.1416     2.7183    -1.4142     1.0000
 

    4    x    1
     0.0000
     0.0000
     0.0000
     0.0000
 
 
 matrix after gauss

    3    x    4
     3.1416     2.7183    -1.4142     1.0000
     0.0000     4.5958     3.6495     1.9549
     0.0000     0.0000     2.5491     0.1990
 
